0,0,0,0,0,0,1,0,3,1,2,2,0,0,0,
0,0,0,0,0,0,1,0,3,1,2,2,0,0,0,
0,0,0,0,0,0,1,0,3,1,2,2,0,0,0,
0,0,0,0,0,0,1,0,3,1,2,2,0,0,0,
5,1,1,1,1,1,1,1,3,1,2,2,1,1,0,
0,0,0,0,0,0,1,0,3,1,2,2,0,0,0,
0,0,0,0,0,0,1,0,3,1,2,2,0,0,0,
0,0,0,0,0,0,1,0,3,1,2,2,0,0,0,
0,0,0,0,0,0,1,0,3,1,2,2,0,0,0,
0,0,0,0,0,0,1,0,3,1,2,2,0,0,0,
0,0,0,0,0,0,1,0,3,1,2,2,0,0,0,
0,0,0,0,0,0,1,0,3,1,2,2,0,0,0,
0,0,0,0,0,0,1,0,3,1,2,2,0,0,0,
0,0,0,0,0,0,1,0,3,1,2,2,0,0,0,
0,0,0,0,0,0,1,0,3,1,2,2,0,0,0,
0,0,0,0,0,0,1,0,3,1,2,2,0,0,0,
0,0,0,0,0,0,1,0,3,1,2,2,0,0,0,
0,0,0,0,0,0,1,0,3,1,2,2,0,0,0,
0,0,0,0,0,0,1,0,3,1,2,2,0,0,0,
5,1,1,1,1,1,1,1,3,1,2,2,1,1,0,
0,0,0,0,0,0,1,0,3,1,2,2,0,0,0,
0,0,0,0,0,0,1,0,3,1,2,2,0,0,0,
0,0,0,0,0,0,1,0,3,1,2,2,0,0,0,
0,0,0,0,0,0,1,0,3,1,2,2,0,0,0,
0,0,0,0,0,0,1,0,3,1,2,2,0,0,0,
0,0,0,0,0,0,1,0,3,1,2,2,0,0,0,
0,0,0,0,0,0,1,0,3,1,2,2,0,0,0,
0,0,0,0,0,0,1,0,3,1,2,2,0,0,0,
0,0,0,0,0,0,1,0,3,1,2,2,0,0,0,
0,0,0,0,0,0,1,0,3,1,2,2,0,0,0,
0,0,0,0,0,0,1,0,3,1,2,2,0,0,0,
0,0,0,0,0,0,1,0,3,1,2,2,0,0,0,
0,0,0,0,0,0,1,0,3,1,2,2,0,0,0,
0,0,0,0,0,0,1,0,3,1,2,2,0,0,0,
5,1,1,1,1,1,1,1,3,1,2,2,1,1,0,
0,0,0,0,0,0,1,0,3,1,2,2,0,0,0,
0,0,0,0,0,0,1,0,3,1,2,2,0,0,0,
0,0,0,0,0,0,1,0,3,1,2,2,0,0,0,
0,0,0,0,0,0,1,0,3,1,2,2,0,0,0,
0,0,0,0,0,0,1,0,3,1,2,2,0,0,0,
0,0,0,0,0,0,1,0,3,1,2,2,0,0,0,
0,0,0,0,0,0,1,0,3,1,2,2,0,0,0,
0,0,0,0,0,0,1,0,3,1,2,2,0,0,0,
0,0,0,0,0,0,1,0,3,1,2,2,0,0,0,
0,0,0,0,0,0,1,0,3,1,2,2,0,0,0,
0,0,0,0,0,0,1,0,3,1,2,2,0,0,0,
0,0,0,0,0,0,1,0,3,1,2,2,0,0,0,
0,0,0,0,0,0,1,0,3,1,2,2,0,0,0,
0,0,0,0,0,0,1,0,3,1,2,2,0,0,0,
5,1,1,1,1,1,1,1,3,1,2,2,1,1,0,
0,0,0,0,0,0,1,0,3,1,2,2,0,0,0,
0,0,0,0,0,0,1,0,3,1,2,2,0,0,0,
0,0,0,0,0,0,1,0,3,1,2,2,0,0,0,
0,0,0,0,0,0,1,0,3,1,2,2,0,0,0,
0,0,0,0,0,0,1,0,3,1,2,2,0,0,0,
0,0,0,0,0,0,1,0,3,1,2,2,0,0,0,
0,0,0,0,0,0,1,0,3,1,2,2,0,0,0,
0,0,0,0,0,0,1,0,3,1,2,2,0,0,0,
0,0,0,0,0,0,1,0,3,1,2,2,0,0,0,
0,0,0,0,0,0,1,0,3,1,2,2,0,0,0,
0,0,0,0,0,0,1,0,3,1,2,2,0,0,0,
0,0,0,0,0,0,1,0,3,1,2,2,0,0,0,
0,0,0,0,0,0,1,0,3,1,2,2,0,0,0,
0,0,0,0,0,0,1,0,3,1,2,2,0,0,0,
5,1,1,1,1,1,1,1,3,1,2,2,1,1,0,
0,0,0,0,0,0,1,0,3,1,2,2,0,0,0,
0,0,0,0,0,0,1,0,3,1,2,2,0,0,0,
0,0,0,0,0,0,1,0,3,1,2,2,0,0,0,
0,0,0,0,0,0,1,0,3,1,2,2,0,0,0,
0,0,0,0,0,0,1,0,3,1,2,2,0,0,0,
0,0,0,0,0,0,1,0,3,1,2,2,0,0,0,
0,0,0,0,0,0,1,0,3,1,2,2,0,0,0,
0,0,0,0,0,0,1,0,3,1,2,2,0,0,0,
0,0,0,0,0,0,1,0,3,1,2,2,0,0,0,
0,0,0,0,0,0,1,0,3,1,2,2,0,0,0,
0,0,0,0,0,0,1,0,3,1,2,2,0,0,0,
0,0,0,0,0,0,1,0,3,1,2,2,0,0,0,
0,0,0,0,0,0,1,0,3,1,2,2,0,0,0,
0,0,0,0,0,0,1,0,3,1,2,2,0,0,0,
5,1,1,1,1,1,1,1,3,1,2,2,1,1,0,
0,0,0,0,0,0,1,0,3,1,2,2,0,0,0,
0,0,0,0,0,0,1,0,3,1,2,2,0,0,0,
0,0,0,0,0,0,1,0,3,1,2,2,0,0,0,
0,0,0,0,0,0,1,0,3,1,2,2,0,0,0,
0,0,0,0,0,0,1,0,3,1,2,2,0,0,0,
0,0,0,0,0,0,1,0,3,1,2,2,0,0,0,
0,0,0,0,0,0,1,0,3,1,2,2,0,0,0,
0,0,0,0,0,0,1,0,3,1,2,2,0,0,0,
0,0,0,0,0,0,1,0,3,1,2,2,0,0,0,
0,0,0,0,0,0,1,0,3,1,2,2,0,0,0,
0,0,0,0,0,0,1,0,3,1,2,2,0,0,0,
0,0,0,0,0,0,1,0,3,1,2,2,0,0,0,
0,0,0,0,0,0,1,0,3,1,2,2,0,0,0,
0,0,0,0,0,0,1,0,3,1,2,2,0,0,0,
5,1,1,1,1,1,1,1,3,1,2,2,1,1,0,
2,0,1,0,0,0,1,1,4,1,2,3,0,0,1,
2,0,1,0,0,0,1,1,4,1,2,3,0,0,1,
0,0,1,0,0,0,1,1,4,1,2,2,0,0,0,
0,0,1,0,0,0,1,1,4,1,2,2,0,0,0,
1,0,1,0,0,0,1,1,4,1,2,2,0,0,0,
1,0,1,0,0,0,1,1,4,1,2,2,0,0,0,
0,0,1,0,0,0,1,1,4,1,2,2,0,0,0,
1,1,1,0,0,0,1,1,4,1,2,2,0,0,0,
0,0,1,0,0,0,1,1,4,1,2,2,0,0,0,
1,0,1,0,0,0,1,1,4,1,2,2,0,0,0,
0,0,1,0,0,0,1,1,4,1,2,2,0,0,0,
0,0,1,0,0,0,1,1,4,1,2,2,0,0,0,
0,0,1,0,0,0,1,1,4,1,2,2,0,0,0,
1,0,1,0,0,0,1,1,4,1,2,2,0,0,0,
5,1,2,1,1,1,1,2,4,1,2,2,1,1,0,
0,0,1,0,0,0,1,1,4,1,2,2,0,0,0,
1,0,1,0,0,0,1,1,4,1,2,2,0,0,0,
0,0,1,0,0,0,1,1,4,1,2,2,0,0,0,
0,0,1,0,0,0,1,1,4,1,2,2,0,0,0,
0,0,1,0,0,0,1,1,4,1,2,2,0,0,0,
1,0,1,0,0,0,1,1,4,1,2,2,0,0,0,
0,0,1,0,0,0,1,1,4,1,2,2,0,0,0,
0,0,1,0,0,0,1,1,4,1,2,2,0,0,0,
1,0,1,0,0,0,1,1,4,1,2,2,0,0,0,
0,0,1,0,0,0,1,1,4,1,2,2,0,0,0,
0,0,1,0,0,0,1,1,4,1,2,2,0,0,0,
1,0,1,0,0,0,1,1,4,1,2,2,0,0,0,
0,0,1,0,0,0,1,1,4,1,2,2,0,0,0,
0,0,1,0,0,0,1,1,4,1,2,2,0,0,0,
6,1,2,1,1,1,1,2,4,1,2,2,1,1,0,
0,0,1,0,0,0,1,1,4,1,2,2,0,0,0,
0,0,1,0,0,0,1,1,4,1,2,2,0,0,0,
0,0,1,0,0,0,1,1,4,1,2,2,0,0,0,
1,0,1,0,0,0,1,1,4,1,2,2,0,0,0,
0,0,1,0,0,0,1,1,4,1,2,2,0,0,0,
0,0,1,0,0,0,1,1,4,1,2,2,0,0,0,
1,0,1,0,0,0,1,1,4,1,2,2,0,0,0,
0,0,1,0,0,0,1,1,4,1,2,2,0,0,0,
0,0,1,0,0,0,1,1,4,1,2,2,0,0,0,
1,0,1,0,0,0,1,1,4,1,2,2,0,0,0,
0,0,1,0,0,0,1,1,4,1,2,2,0,0,0,
0,0,1,0,0,0,1,1,4,1,2,2,0,0,0,
1,0,1,0,0,0,1,1,4,1,2,2,0,0,0,
0,0,1,0,0,0,1,1,4,1,2,2,0,0,0,
5,1,2,1,1,1,1,2,4,1,2,2,1,1,0,
1,0,1,0,0,0,1,1,4,1,2,2,0,0,0,
0,0,1,0,0,0,1,1,4,1,2,2,0,0,0,
0,0,1,0,0,0,1,1,4,1,2,2,0,0,0,
0,0,1,0,0,0,1,1,4,1,2,2,0,0,0,
1,0,1,0,0,0,1,1,4,1,2,2,0,0,0,
0,0,1,0,0,0,1,1,4,1,2,2,0,0,0,
0,0,1,0,0,0,1,1,4,1,2,2,0,0,0,
1,0,1,0,0,0,1,1,4,1,2,2,0,0,0,
0,0,1,0,0,0,1,1,4,1,2,2,0,0,0,
0,0,1,0,0,0,1,1,4,1,2,2,0,0,0,
0,0,1,0,0,0,1,1,4,1,2,2,0,0,0,
1,0,1,0,0,0,1,1,4,1,2,2,0,0,0,
0,0,1,0,0,0,1,1,4,1,2,2,0,0,0,
0,0,1,0,0,0,1,1,4,1,2,2,0,0,0,
6,1,2,1,1,1,1,2,4,1,2,2,1,1,0,
0,0,1,0,0,0,1,1,4,1,2,2,0,0,0,
0,0,1,0,0,0,1,1,4,1,2,2,0,0,0,
0,0,1,0,0,0,1,1,4,1,2,2,0,0,0,
1,0,1,0,0,0,1,1,4,1,2,2,0,0,0,
0,0,1,0,0,0,1,1,4,1,2,2,0,0,0,
0,0,1,0,0,0,1,1,4,1,2,2,0,0,0,
0,0,1,0,0,0,1,1,4,1,2,2,0,0,0,
1,0,1,0,0,0,1,1,4,1,2,2,0,0,0,
0,0,1,0,0,0,1,1,4,1,2,2,0,0,0,
0,0,1,0,0,0,1,1,4,1,2,2,0,0,0,
1,0,1,0,0,0,1,1,4,1,2,2,0,0,0,
0,0,1,0,0,0,1,1,4,1,2,2,0,0,0,
0,0,1,0,0,0,1,1,4,1,2,2,0,0,0,
0,0,1,0,0,0,1,1,4,1,2,2,0,0,0,
6,1,2,1,1,1,1,2,4,1,2,2,1,1,0,
0,0,1,0,0,0,1,1,4,1,2,2,0,0,0,
0,0,1,0,0,0,1,1,4,1,2,2,0,0,0,
0,0,1,0,0,0,1,1,4,1,2,2,0,0,0,
1,0,1,0,0,0,1,1,4,1,2,2,0,0,0,
0,0,1,0,0,0,1,1,4,1,2,2,0,0,0,
0,0,1,0,0,0,1,1,4,1,2,2,0,0,0,
1,0,1,0,0,0,1,1,4,1,2,2,0,0,0,
0,0,1,0,0,0,1,1,4,1,2,2,0,0,0,
0,0,1,0,0,0,1,1,4,1,2,2,0,0,0,
0,0,1,0,0,0,1,1,4,1,2,2,0,0,0,
1,0,1,0,0,0,1,1,4,1,2,2,0,0,0,
0,0,1,0,0,0,1,1,4,1,2,2,0,0,0,
0,0,1,0,0,0,1,1,4,1,2,2,0,0,0,
1,0,1,0,0,0,1,1,4,1,2,2,0,0,0,
5,1,2,1,1,1,1,2,4,1,2,2,1,1,0,
0,0,1,0,0,0,1,1,4,1,2,2,0,0,0,
1,0,1,0,0,0,1,1,4,1,2,2,0,0,0,
0,0,1,0,0,0,1,1,4,1,2,2,0,0,0,
0,0,1,0,0,0,1,1,4,1,2,2,0,0,0,
1,0,1,0,0,0,1,1,4,1,2,2,0,0,0,
0,0,1,0,0,0,1,1,4,1,2,2,0,0,0,
0,0,1,0,0,0,1,1,4,1,2,2,0,0,0,
1,0,1,0,0,0,1,1,4,1,2,2,0,0,0,
0,0,1,0,0,0,1,1,4,1,2,2,0,0,0,
0,0,1,0,0,0,1,1,4,1,2,2,0,0,0,
1,0,1,0,0,0,1,1,4,1,2,2,0,0,0,
0,0,1,0,0,0,1,1,4,1,2,2,0,0,0,
0,0,1,0,0,0,1,1,4,1,2,2,0,0,0,
1,0,1,0,0,0,1,1,4,1,2,2,0,0,0,
5,1,2,1,1,1,1,2,4,1,2,2,1,1,0,
0,0,1,0,0,0,1,1,4,1,2,2,0,0,0,
0,0,1,0,0,0,1,1,4,1,2,2,0,0,0,
1,0,1,0,0,0,1,1,4,1,2,2,0,0,0,
0,0,1,0,0,0,1,1,4,1,2,2,0,0,0,
0,0,1,0,0,0,1,1,4,1,2,2,0,0,0,
1,1,1,0,0,0,1,1,4,1,2,2,0,0,0,
0,0,0,0,0,0,1,0,3,1,2,2,0,0,0,
0,0,0,0,0,0,1,0,3,1,2,2,0,0,0,
0,0,0,0,0,0,1,0,3,1,2,2,0,0,0,
0,0,0,0,0,0,1,0,3,1,2,2,0,0,0,
0,0,0,0,0,0,1,0,3,1,2,2,0,0,0,
0,0,0,0,0,0,1,0,3,1,2,2,0,0,0,
0,0,0,0,0,0,1,0,3,1,2,2,0,0,0,
0,0,0,0,0,0,1,0,3,1,2,2,0,0,0,
5,1,1,1,1,1,1,1,3,1,2,2,1,1,0,
0,0,0,0,0,0,1,0,3,1,2,2,0,0,0,
0,0,0,0,0,0,1,0,3,1,2,2,0,0,0,
0,0,0,0,0,0,1,0,3,1,2,2,0,0,0,
0,0,0,0,0,0,1,0,3,1,2,2,0,0,0,
0,0,0,0,0,0,1,0,3,1,2,2,0,0,0,
0,0,0,0,0,0,1,0,3,1,2,2,0,0,0,
0,0,0,0,0,0,1,0,3,1,2,2,0,0,0,
0,0,0,0,0,0,1,0,3,1,2,2,0,0,0,
0,0,0,0,0,0,1,0,3,1,2,2,0,0,0,
0,0,0,0,0,0,1,0,3,1,2,2,0,0,0,
0,0,0,0,0,0,1,0,3,1,2,2,0,0,0,
0,0,0,0,0,0,1,0,3,1,2,2,0,0,0,
0,0,0,0,0,0,1,0,3,1,2,2,0,0,0,
0,0,0,0,0,0,1,0,3,1,2,2,0,0,0,
5,1,1,1,1,1,1,1,3,1,2,2,1,1,0,
0,0,0,0,0,0,1,0,3,1,2,2,0,0,0,
0,0,0,0,0,0,1,0,3,1,2,2,0,0,0,
0,0,0,0,0,0,1,0,3,1,2,2,0,0,0,
0,0,0,0,0,0,1,0,3,1,2,2,0,0,0,
0,0,0,0,0,0,1,0,3,1,2,2,0,0,0,
0,0,0,0,0,0,1,0,3,1,2,2,0,0,0,
0,0,0,0,0,0,1,0,3,1,2,2,0,0,0,
0,0,0,0,0,0,1,0,3,1,2,2,0,0,0,
0,0,0,0,0,0,1,0,3,1,2,2,0,0,0,
0,0,0,0,0,0,1,0,3,1,2,2,0,0,0,
0,0,0,0,0,0,1,0,3,1,2,2,0,0,0,
0,0,0,0,0,0,1,0,3,1,2,2,0,0,0,
0,0,0,0,0,0,1,0,3,1,2,2,0,0,0,
0,0,0,0,0,0,1,0,3,1,2,2,0,0,0,
5,1,1,1,1,1,1,1,3,1,2,2,1,1,0,
0,0,0,0,0,0,1,0,3,1,2,2,0,0,0,
0,0,0,0,0,0,1,0,3,1,2,2,0,0,0,
0,0,0,0,0,0,1,0,3,1,2,2,0,0,0,
0,0,0,0,0,0,1,0,3,1,2,2,0,0,0,
0,0,0,0,0,0,1,0,3,1,2,2,0,0,0,
0,0,0,0,0,0,1,0,3,1,2,2,0,0,0,
0,0,0,0,0,0,1,0,3,1,2,2,0,0,0,
0,0,0,0,0,0,1,0,3,1,2,2,0,0,0,
0,0,0,0,0,0,1,0,3,1,2,2,0,0,0,
0,0,0,0,0,0,1,0,3,1,2,2,0,0,0,
0,0,0,0,0,0,1,0,3,1,2,2,0,0,0,
0,0,0,0,0,0,1,0,3,1,2,2,0,0,0,
0,0,0,0,0,0,1,0,3,1,2,2,0,0,0,
0,0,0,0,0,0,1,0,3,1,2,2,0,0,0,
5,1,1,1,1,1,1,1,3,1,2,2,1,1,0,
0,0,0,0,0,0,1,0,3,1,2,2,0,0,0,
0,0,0,0,0,0,1,0,3,1,2,2,0,0,0,
0,0,0,0,0,0,1,0,3,1,2,2,0,0,0,
0,0,0,0,0,0,1,0,3,1,2,2,0,0,0,
0,0,0,0,0,0,1,0,3,1,2,2,0,0,0,
0,0,0,0,0,0,1,0,3,1,2,2,0,0,0,
0,0,0,0,0,0,1,0,3,1,2,2,0,0,0,
0,0,0,0,0,0,1,0,3,1,2,2,0,0,0,
0,0,0,0,0,0,1,0,3,1,2,2,0,0,0,
0,0,0,0,0,0,1,0,3,1,2,2,0,0,0,
0,0,0,0,0,0,1,0,3,1,2,2,0,0,0,
0,0,0,0,0,0,1,0,3,1,2,2,0,0,0,
0,0,0,0,0,0,1,0,3,1,2,2,0,0,0,
0,0,0,0,0,0,1,0,3,1,2,2,0,0,0,
5,1,1,1,1,1,1,1,3,1,2,2,1,1,0,
0,0,0,0,0,0,1,0,3,1,2,2,0,0,0,
0,0,0,0,0,0,1,0,3,1,2,2,0,0,0,
0,0,0,0,0,0,1,0,3,1,2,2,0,0,0,
0,0,0,0,0,0,1,0,3,1,2,2,0,0,0,
0,0,0,0,0,0,1,0,3,1,2,2,0,0,0,
0,0,0,0,0,0,1,0,3,1,2,2,0,0,0,
0,0,0,0,0,0,1,0,3,1,2,2,0,0,0,
2,0,1,0,0,0,1,1,4,1,2,3,0,0,1,
2,0,1,0,0,0,1,1,4,1,2,3,0,0,1,
2,0,1,0,0,0,1,1,4,1,2,3,0,0,1,
2,0,1,0,0,0,1,1,4,1,2,3,0,0,1,
1,0,1,0,0,0,1,1,4,1,2,2,0,0,0,
1,0,1,0,0,0,1,1,4,1,2,2,0,0,0,
2,0,1,0,0,0,1,1,4,1,2,2,0,0,0,
6,2,2,1,1,1,1,2,4,1,2,2,1,1,0,
1,0,1,0,0,0,1,1,4,1,2,2,0,0,0,
2,0,1,0,0,0,1,1,4,1,2,2,0,0,0,
0,0,1,0,0,0,1,1,4,1,2,2,0,0,0,
0,0,1,0,0,0,1,1,4,1,2,2,0,0,0,
1,0,1,0,0,0,1,1,4,1,2,2,0,0,0,
2,0,1,0,0,0,1,1,4,1,2,2,0,0,0,
0,0,1,0,0,0,1,1,4,1,2,2,0,0,0,
0,0,1,0,0,0,1,1,4,1,2,2,0,0,0,
1,0,1,0,0,0,1,1,4,1,2,2,0,0,0,
2,0,1,0,0,0,1,1,4,1,2,2,0,0,0,
0,0,1,0,0,0,1,1,4,1,2,2,0,0,0,
1,0,1,0,0,0,1,1,4,1,2,2,0,0,0,
2,0,1,0,0,0,1,1,4,1,2,2,0,0,0,
0,0,1,0,0,0,1,1,4,1,2,2,0,0,0,
6,1,2,1,1,1,1,2,4,1,2,2,1,1,0,
2,0,1,0,0,0,1,1,4,1,2,2,0,0,0,
0,0,1,0,0,0,1,1,4,1,2,2,0,0,0,
0,0,1,0,0,0,1,1,4,1,2,2,0,0,0,
1,0,1,0,0,0,1,1,4,1,2,2,0,0,0,
2,0,1,0,0,0,1,1,4,1,2,2,0,0,0,
0,0,1,0,0,0,1,1,4,1,2,2,0,0,0,
0,0,1,0,0,0,1,1,4,1,2,2,0,0,0,
3,0,1,0,0,0,1,1,4,1,2,2,0,0,0,
0,0,1,0,0,0,1,1,4,1,2,2,0,0,0,
0,0,1,0,0,0,1,1,4,1,2,2,0,0,0,
0,0,1,0,0,0,1,1,4,1,2,2,0,0,0,
3,0,1,0,0,0,1,1,4,1,2,2,0,0,0,
0,0,1,0,0,0,1,1,4,1,2,2,0,0,0,
0,0,1,0,0,0,1,1,4,1,2,2,0,0,0,
8,1,2,1,1,1,1,2,4,1,2,2,1,1,0,
0,0,1,0,0,0,1,1,4,1,2,2,0,0,0,
0,0,1,0,0,0,1,1,4,1,2,2,0,0,0,
0,0,1,0,0,0,1,1,4,1,2,2,0,0,0,
3,0,1,0,0,0,1,1,4,1,2,2,0,0,0,
0,0,1,0,0,0,1,1,4,1,2,2,0,0,0,
0,0,1,0,0,0,1,1,4,1,2,2,0,0,0,
3,0,1,0,0,0,1,1,4,1,2,2,0,0,0,
0,0,1,0,0,0,1,1,4,1,2,2,0,0,0,
0,0,1,0,0,0,1,1,4,1,2,2,0,0,0,
0,0,1,0,0,0,1,1,4,1,2,2,0,0,0,
3,0,1,0,0,0,1,1,4,1,2,2,0,0,0,
0,0,1,0,0,0,1,1,4,1,2,2,0,0,0,
0,0,1,0,0,0,1,1,4,1,2,2,0,0,0,
3,0,1,0,0,0,1,1,4,1,2,2,0,0,0,
5,1,2,1,1,1,1,2,4,1,2,2,1,1,0,
0,0,1,0,0,0,1,1,4,1,2,2,0,0,0,
0,0,1,0,0,0,1,1,4,1,2,2,0,0,0,
3,0,1,0,0,0,1,1,4,1,2,2,0,0,0,
0,0,1,0,0,0,1,1,4,1,2,2,0,0,0,
0,0,1,0,0,0,1,1,4,1,2,2,0,0,0,
3,0,1,0,0,0,1,1,4,1,2,2,0,0,0,
0,0,1,0,0,0,1,1,4,1,2,2,0,0,0,
0,0,1,0,0,0,1,1,4,1,2,2,0,0,0,
5,0,0,0,0,0,1,1,4,1,2,2,0,0,0,
4,0,1,0,0,0,1,1,4,1,2,2,0,0,0,
4,0,1,0,0,0,1,1,4,1,2,2,0,0,0,
7,0,1,0,0,0,1,1,4,1,2,2,0,0,0,
4,0,1,0,0,0,1,1,4,1,2,2,0,0,0,
4,0,1,0,0,0,1,1,4,1,2,2,0,0,0,
12,1,2,1,1,1,1,2,4,1,2,2,1,1,0,
4,0,1,0,0,0,1,1,4,1,2,2,0,0,0,
4,0,1,0,0,0,1,1,4,1,2,2,0,0,0,
4,0,1,0,0,0,1,1,4,1,2,2,0,0,0,
7,0,1,0,0,0,1,1,4,1,2,2,0,0,0,
4,0,1,0,0,0,1,1,4,1,2,2,0,0,0,
4,0,1,0,0,0,1,1,4,1,2,2,0,0,0,
4,0,1,0,0,0,1,1,4,1,2,2,0,0,0,
7,0,1,0,0,0,1,1,4,1,2,2,0,0,0,
4,0,1,0,0,0,1,1,4,1,2,2,0,0,0,
4,0,1,0,0,0,1,1,4,1,2,2,0,0,0,
4,0,1,0,0,0,1,1,4,1,2,2,0,0,0,
7,0,1,0,0,0,1,1,4,1,2,2,0,0,0,
4,0,1,0,0,0,1,1,4,1,2,2,0,0,0,
4,0,1,0,0,0,1,1,4,1,2,2,0,0,0,
12,1,2,1,1,1,1,2,4,1,2,2,1,1,0,
4,0,1,0,0,0,1,1,4,1,2,2,0,0,0,
4,0,1,0,0,0,1,1,4,1,2,2,0,0,0,
4,0,1,0,0,0,1,1,4,1,2,2,0,0,0,
7,0,1,0,0,0,1,1,4,1,2,2,0,0,0,
4,0,1,0,0,0,1,1,4,1,2,2,0,0,0,
4,0,1,0,0,0,1,1,4,1,2,2,0,0,0,
7,0,1,0,0,0,1,1,4,1,2,2,0,0,0,
4,0,1,0,0,0,1,1,4,1,2,2,0,0,0,
4,0,1,0,0,0,1,1,4,1,2,2,0,0,0,
4,0,1,0,0,0,1,1,4,1,2,2,0,0,0,
7,0,1,0,0,0,1,1,4,1,2,2,0,0,0,
4,0,1,0,0,0,1,1,4,1,2,2,0,0,0,
4,0,1,0,0,0,1,1,4,1,2,2,0,0,0,
7,0,1,0,0,0,1,1,4,1,2,2,0,0,0,
9,1,2,1,1,1,1,2,4,1,2,2,1,1,0,
4,0,1,0,0,0,1,1,4,1,2,2,0,0,0,
4,0,1,0,0,0,1,1,4,1,2,2,0,0,0,
7,0,1,0,0,0,1,1,4,1,2,2,0,0,0,
4,0,1,0,0,0,1,1,4,1,2,2,0,0,0,
4,0,1,0,0,0,1,1,4,1,2,2,0,0,0,
7,0,1,0,0,0,1,1,4,1,2,2,0,0,0,
4,0,1,0,0,0,1,1,4,1,2,2,0,0,0,
4,0,1,0,0,0,1,1,4,1,2,2,0,0,0,
4,0,1,0,0,0,1,1,4,1,2,2,0,0,0,
7,0,1,0,0,0,1,1,4,1,2,2,0,0,0,
4,0,1,0,0,0,1,1,4,1,2,2,0,0,0,
4,0,1,0,0,0,1,1,4,1,2,2,0,0,0,
7,0,1,0,0,0,1,1,4,1,2,2,0,0,0,
4,0,1,0,0,0,1,1,4,1,2,2,0,0,0,
9,1,2,1,1,1,1,2,4,1,2,2,1,1,0,
7,0,1,0,0,0,1,1,4,1,2,2,0,0,0,
4,0,1,0,0,0,1,1,4,1,2,2,0,0,0,
4,0,1,0,0,0,1,1,4,1,2,2,0,0,0,
4,0,1,0,0,0,1,1,4,1,2,2,0,0,0,
7,0,1,0,0,0,1,1,4,1,2,2,0,0,0,
4,0,1,0,0,0,1,1,4,1,2,2,0,0,0,
4,0,1,0,0,0,1,1,4,1,2,2,0,0,0,
4,0,1,0,0,0,1,1,4,1,2,2,0,0,0,
7,0,1,0,0,0,1,1,4,1,2,2,0,0,0,
4,0,1,0,0,0,1,1,4,1,2,2,0,0,0,
4,0,1,0,0,0,1,1,4,1,2,2,0,0,0,
7,0,1,0,0,0,1,1,4,1,2,2,0,0,0,
4,0,1,0,0,0,1,1,4,1,2,2,0,0,0,
4,0,1,0,0,0,1,1,4,1,2,2,0,0,0,
12,1,2,1,1,1,1,2,4,1,2,2,1,1,0,
4,0,1,0,0,0,1,1,4,1,2,2,0,0,0,
4,0,1,0,0,0,1,1,4,1,2,2,0,0,0,
4,0,1,0,0,0,1,1,4,1,2,2,0,0,0,
7,0,1,0,0,0,1,1,4,1,2,2,0,0,0,
4,0,1,0,0,0,1,1,4,1,2,2,0,0,0,
4,0,1,0,0,0,1,1,4,1,2,2,0,0,0,
7,0,1,0,0,0,1,1,4,1,2,2,0,0,0,
4,0,1,0,0,0,1,1,4,1,2,2,0,0,0,
4,0,1,0,0,0,1,1,4,1,2,2,0,0,0,
4,0,1,0,0,0,1,1,4,1,2,2,0,0,0,
7,0,1,0,0,0,1,1,4,1,2,2,0,0,0,
4,0,1,0,0,0,1,1,4,1,2,2,0,0,0,
4,0,1,0,0,0,1,1,4,1,2,2,0,0,0,
4,0,1,0,0,0,1,1,4,1,2,2,0,0,0,
12,1,2,1,1,1,1,2,4,1,2,2,1,1,0,
4,0,1,0,0,0,1,1,4,1,2,2,0,0,0,
4,0,1,0,0,0,1,1,4,1,2,2,0,0,0,
4,0,1,0,0,0,1,1,4,1,2,2,0,0,0,
7,0,1,0,0,0,1,1,4,1,2,2,0,0,0,
4,0,1,0,0,0,1,1,4,1,2,2,0,0,0,
4,0,1,0,0,0,1,1,4,1,2,2,0,0,0,
7,0,1,0,0,0,1,1,4,1,2,2,0,0,0,
4,0,1,0,0,0,1,1,4,1,2,2,0,0,0,
4,0,1,0,0,0,1,1,4,1,2,2,0,0,0,
7,0,1,0,0,0,1,1,4,1,2,2,0,0,0,
4,0,1,0,0,0,1,1,4,1,2,2,0,0,0,
4,0,1,0,0,0,1,1,4,1,2,2,0,0,0,
7,0,1,0,0,0,1,1,4,1,2,2,0,0,0,
4,0,1,0,0,0,1,1,4,1,2,2,0,0,0,
9,1,2,1,1,1,1,2,4,1,2,2,1,1,0,
7,0,1,0,0,0,1,1,4,1,2,2,0,0,0,
4,0,1,0,0,0,1,1,4,1,2,2,0,0,0,
2,2,2,0,0,0,1,1,4,1,2,2,0,0,0,
0,0,1,0,0,0,1,1,4,1,2,2,0,0,0,
1,0,1,0,0,0,1,1,4,1,2,2,0,0,0,
0,0,1,0,0,0,1,1,4,1,2,2,0,0,0,
0,0,1,0,0,0,1,1,4,1,2,2,0,0,0,
0,0,1,0,0,0,1,1,4,1,2,2,0,0,0,
1,0,1,0,0,0,1,1,4,1,2,2,0,0,0,
0,0,1,0,0,0,1,1,4,1,2,2,0,0,0,
0,0,1,0,0,0,1,1,4,1,2,2,0,0,0,
0,0,1,0,0,0,1,1,4,1,2,2,0,0,0,
1,0,1,0,0,0,1,1,4,1,2,2,0,0,0,
0,0,1,0,0,0,1,1,4,1,2,2,0,0,0,
5,1,2,1,1,1,1,2,4,1,2,2,1,1,0,
1,0,1,0,0,0,1,1,4,1,2,2,0,0,0,
0,0,1,0,0,0,1,1,4,1,2,2,0,0,0,
0,0,1,0,0,0,1,1,4,1,2,2,0,0,0,
0,0,1,0,0,0,1,1,4,1,2,2,0,0,0,
1,0,1,0,0,0,1,1,4,1,2,2,0,0,0,
0,0,1,0,0,0,1,1,4,1,2,2,0,0,0,
0,0,1,0,0,0,1,1,4,1,2,2,0,0,0,
1,0,1,0,0,0,1,1,4,1,2,2,0,0,0,
0,0,1,0,0,0,1,1,4,1,2,2,0,0,0,
0,0,1,0,0,0,1,1,4,1,2,2,0,0,0,
1,0,1,0,0,0,1,1,4,1,2,2,0,0,0,
0,0,1,0,0,0,1,1,4,1,2,2,0,0,0,
0,0,1,0,0,0,1,1,4,1,2,2,0,0,0,
1,0,1,0,0,0,1,1,4,1,2,2,0,0,0,
5,1,2,1,1,1,1,2,4,1,2,2,1,1,0,
0,0,1,0,0,0,1,1,4,1,2,2,0,0,0,
1,0,1,0,0,0,1,1,4,1,2,2,0,0,0,
0,0,1,0,0,0,1,1,4,1,2,2,0,0,0,
0,0,1,0,0,0,1,1,4,1,2,2,0,0,0,
1,0,1,0,0,0,1,1,4,1,2,2,0,0,0,
0,0,1,0,0,0,1,1,4,1,2,2,0,0,0,
0,0,1,0,0,0,1,1,4,1,2,2,0,0,0,
0,0,1,0,0,0,1,1,4,1,2,2,0,0,0,
1,0,1,0,0,0,1,1,4,1,2,2,0,0,0,
0,0,1,0,0,0,1,1,4,1,2,2,0,0,0,
0,0,1,0,0,0,1,1,4,1,2,2,0,0,0,
1,0,1,0,0,0,1,1,4,1,2,2,0,0,0,
0,0,1,0,0,0,1,1,4,1,2,2,0,0,0,
0,0,1,0,0,0,1,1,4,1,2,2,0,0,0,
6,1,2,1,1,1,1,2,4,1,2,2,1,1,0,
0,0,1,0,0,0,1,1,4,1,2,2,0,0,0,
0,0,1,0,0,0,1,1,4,1,2,2,0,0,0,
0,0,1,0,0,0,1,1,4,1,2,2,0,0,0,
1,0,1,0,0,0,1,1,4,1,2,2,0,0,0,
0,0,1,0,0,0,1,1,4,1,2,2,0,0,0,
0,0,1,0,0,0,1,1,4,1,2,2,0,0,0,
1,0,1,0,0,0,1,1,4,1,2,2,0,0,0,
0,0,1,0,0,0,1,1,4,1,2,2,0,0,0,
0,0,1,0,0,0,1,1,4,1,2,2,0,0,0,
1,0,1,0,0,0,1,1,4,1,2,2,0,0,0,
0,0,1,0,0,0,1,1,4,1,2,2,0,0,0,
0,0,1,0,0,0,1,1,4,1,2,2,0,0,0,
1,0,1,0,0,0,1,1,4,1,2,2,0,0,0,
0,0,1,0,0,0,1,1,4,1,2,2,0,0,0,
5,1,2,1,1,1,1,2,4,1,2,2,1,1,0,
1,0,1,0,0,0,1,1,4,1,2,2,0,0,0,
0,0,1,0,0,0,1,1,4,1,2,2,0,0,0,
